simulation/qsim/pwm_controller.msim.vcd
$comment
	File created using the following command:
		vcd file pwm_controller.msim.vcd -direction
$end
$date
	Mon Dec 23 15:46:33 2024
$end
$version
	ModelSim Version 2020.1
$end
$timescale
	1ps
$end

$scope module pwm_controller_vlg_vec_tst $end
$var reg 1 ! in_clk $end
$var reg 8 " in_input [7:0] $end
$var reg 1 # in_latch $end
$var reg 1 $ in_nres $end
$var wire 1 % out_output $end

$scope module i1 $end
$var wire 1 & gnd $end
$var wire 1 ' vcc $end
$var wire 1 ( unknown $end
$var tri1 1 ) devclrn $end
$var tri1 1 * devpor $end
$var tri1 1 + devoe $end
$var wire 1 , ~QUARTUS_CREATED_GND~I_combout $end
$var wire 1 - in_clk~input_o $end
$var wire 1 . in_clk~inputCLKENA0_outclk $end
$var wire 1 / in_nres~input_o $end
$var wire 1 0 in_input[6]~input_o $end
$var wire 1 1 counter|reg_reference_value[6]~feeder_combout $end
$var wire 1 2 in_latch~input_o $end
$var wire 1 3 counter|reg_reference_value[7]~0_combout $end
$var wire 1 4 counter|reg_count_value[6]~21_combout $end
$var wire 1 5 in_input[3]~input_o $end
$var wire 1 6 counter|reg_count_value[3]~9_combout $end
$var wire 1 7 in_input[2]~input_o $end
$var wire 1 8 counter|reg_count_value[2]~5_combout $end
$var wire 1 9 in_input[0]~input_o $end
$var wire 1 : counter|reg_count_value[0]~29_combout $end
$var wire 1 ; counter|Add1~13_sumout $end
$var wire 1 < counter|reg_count_value[0]~31_combout $end
$var wire 1 = counter|reg_count_value[0]~_emulated_q $end
$var wire 1 > counter|reg_count_value[0]~30_combout $end
$var wire 1 ? counter|Add1~14 $end
$var wire 1 @ counter|Add1~17_sumout $end
$var wire 1 A in_input[1]~input_o $end
$var wire 1 B counter|reg_count_value[1]~1_combout $end
$var wire 1 C counter|reg_count_value[1]~3_combout $end
$var wire 1 D counter|reg_count_value[1]~_emulated_q $end
$var wire 1 E counter|reg_count_value[1]~2_combout $end
$var wire 1 F counter|Add1~18 $end
$var wire 1 G counter|Add1~21_sumout $end
$var wire 1 H counter|reg_count_value[2]~7_combout $end
$var wire 1 I counter|reg_count_value[2]~_emulated_q $end
$var wire 1 J counter|reg_count_value[2]~6_combout $end
$var wire 1 K counter|Add1~22 $end
$var wire 1 L counter|Add1~25_sumout $end
$var wire 1 M counter|reg_count_value[3]~11_combout $end
$var wire 1 N counter|reg_count_value[3]~_emulated_q $end
$var wire 1 O counter|reg_count_value[3]~10_combout $end
$var wire 1 P in_input[5]~input_o $end
$var wire 1 Q counter|reg_count_value[5]~17_combout $end
$var wire 1 R in_input[4]~input_o $end
$var wire 1 S counter|reg_count_value[4]~13_combout $end
$var wire 1 T counter|Add1~26 $end
$var wire 1 U counter|Add1~29_sumout $end
$var wire 1 V counter|reg_count_value[4]~15_combout $end
$var wire 1 W counter|reg_count_value[4]~_emulated_q $end
$var wire 1 X counter|reg_count_value[4]~14_combout $end
$var wire 1 Y counter|Add1~30 $end
$var wire 1 Z counter|Add1~1_sumout $end
$var wire 1 [ counter|reg_count_value[5]~19_combout $end
$var wire 1 \ counter|reg_count_value[5]~_emulated_q $end
$var wire 1 ] counter|reg_count_value[5]~18_combout $end
$var wire 1 ^ counter|Equal2~0_combout $end
$var wire 1 _ in_input[7]~input_o $end
$var wire 1 ` counter|reg_count_value[7]~25_combout $end
$var wire 1 a counter|Add1~2 $end
$var wire 1 b counter|Add1~6 $end
$var wire 1 c counter|Add1~9_sumout $end
$var wire 1 d counter|reg_count_value[7]~27_combout $end
$var wire 1 e counter|reg_count_value[7]~_emulated_q $end
$var wire 1 f counter|reg_count_value[7]~26_combout $end
$var wire 1 g counter|Equal2~1_combout $end
$var wire 1 h counter|Equal2~2_combout $end
$var wire 1 i counter|reg_count_value[6]~23_combout $end
$var wire 1 j counter|reg_count_value[6]~_emulated_q $end
$var wire 1 k counter|reg_count_value[6]~22_combout $end
$var wire 1 l counter|Add1~5_sumout $end
$var wire 1 m counter|out_done~1_combout $end
$var wire 1 n counter|out_done~2_combout $end
$var wire 1 o counter|out_done~0_combout $end
$var wire 1 p counter|out_done~q $end
$var wire 1 q reg_output~0_combout $end
$var wire 1 r reg_output~q $end
$var wire 1 s counter|reg_reference_value [7] $end
$var wire 1 t counter|reg_reference_value [6] $end
$var wire 1 u counter|reg_reference_value [5] $end
$var wire 1 v counter|reg_reference_value [4] $end
$var wire 1 w counter|reg_reference_value [3] $end
$var wire 1 x counter|reg_reference_value [2] $end
$var wire 1 y counter|reg_reference_value [1] $end
$var wire 1 z counter|reg_reference_value [0] $end
$upscope $end
$upscope $end
$enddefinitions $end
#0
$dumpvars
0!
b1111 "
0#
0$
1%
0&
1'
x(
1)
1*
1+
0,
0-
0.
0/
00
01
02
03
04
15
06
17
08
19
0:
1;
0<
0=
0>
0?
1@
1A
0B
0C
0D
0E
0F
1G
0H
0I
0J
0K
1L
0M
0N
0O
0P
0Q
0R
0S
0T
1U
0V
0W
0X
0Y
1Z
0[
0\
0]
1^
0_
0`
0a
0b
1c
0d
0e
0f
1g
1h
0i
0j
0k
1l
1m
0n
0o
0p
0q
0r
0z
0y
0x
0w
0v
0u
0t
0s
$end
#5000
1!
1-
1.
#10000
1#
1$
0!
12
1/
0-
0.
13
#15000
1!
1-
1.
1y
1z
1x
1w
1M
1H
1<
1C
#20000
0#
0!
02
0-
0.
03
#25000
1!
1-
1.
1N
1I
1D
1=
1>
1E
1J
1O
0^
1T
0L
1K
0G
1F
0@
0g
1?
0;
1Y
0U
1L
1G
1@
0m
0h
1a
0Z
1i
1d
1[
0<
1b
0l
0[
0c
0i
0d
#30000
0!
0-
0.
#35000
1!
1-
1.
0=
0>
1g
0?
1;
0@
1m
1<
0C
#40000
0!
0-
0.
#45000
1!
1-
1.
0D
1=
1>
0E
0F
1@
0g
1?
0;
0G
1F
0@
0m
0<
1C
1G
0C
0H
1H
#50000
0!
0-
0.
#55000
1!
1-
1.
0=
0>
1g
0?
1;
0F
1@
1m
1<
0G
1C
0H
#60000
0!
0-
0.
#65000
1!
1-
1.
0I
1D
1=
1>
1E
0J
0K
1G
1F
0@
0g
1?
0;
0L
1K
0G
1@
0m
0<
0C
1H
1L
1C
0H
0M
1M
#70000
0!
0-
0.
#75000
1!
1-
1.
0=
0>
1g
0?
1;
0@
1m
1<
0C
#80000
0!
0-
0.
#85000
1!
1-
1.
0D
1=
1>
0E
0F
1@
0g
1?
0;
0K
1G
1F
0@
0m
0<
1C
0L
1K
0G
0C
1H
1L
1n
0H
0M
0n
1o
1M
0o
#90000
0!
0-
0.
#95000
1!
1-
1.
0=
0>
1g
0?
1;
0F
1@
1m
1<
0K
1G
1C
0L
1H
0M
#100000
0!
0-
0.
#105000
1!
1-
1.
0N
1I
1D
1=
1>
1E
1J
0O
0T
1L
1K
0G
1F
0@
0g
1?
0;
0Y
1U
1T
0L
1G
1@
0m
0<
0C
0H
1M
0a
1Z
1Y
0U
1C
1H
0M
1V
0b
1l
1a
0Z
0V
1[
1c
1b
0l
0[
1i
0c
0i
1d
0d
#110000
0!
0-
0.
#115000
1!
1-
1.
0=
0>
1g
0?
1;
0@
1m
1<
0C
#120000
0!
0-
0.
#125000
1!
1-
1.
0D
1=
1>
0E
0F
1@
0g
1?
0;
0G
1F
0@
0m
0<
1C
1G
1n
0C
0H
0n
1o
1H
0o
#130000
0!
0-
0.
#135000
1!
1-
1.
0=
0>
1g
0?
1;
0F
1@
1m
1<
0G
1C
0H
#140000
0!
0-
0.
#145000
1!
1-
1.
0I
1D
1=
1>
1E
0J
0K
1G
1F
0@
0g
1?
0;
0T
1L
1K
0G
1@
0m
0<
0C
1H
0Y
1U
1T
0L
1C
0H
1M
0a
1Z
1Y
0U
0M
1V
0b
1l
1a
0Z
0V
1[
1c
1b
0l
0[
1i
0c
0i
1d
0d
#150000
0!
0-
0.
#155000
1!
1-
1.
0=
0>
1g
0?
1;
0@
1m
1<
1n
0C
#160000
0!
0-
0.
#165000
1!
1-
1.
0D
1=
1>
0E
1^
0F
1@
0g
1?
0;
0K
1G
1F
0@
0m
0n
0<
1C
0T
1L
1K
0G
0C
1H
0Y
1U
1T
0L
0H
1M
0a
1Z
1Y
0U
0M
1V
0b
1l
1a
0Z
1n
0V
1[
1c
1b
0l
0[
1i
0c
0i
1d
1o
0d
#170000
0!
0-
0.
#175000
1!
1-
1.
1p
0=
0>
1q
1g
0?
1;
0F
1@
1m
1h
1<
0K
1G
0n
1M
1H
1C
0o
0T
1L
0Y
1U
0a
1Z
0b
1l
1c
#180000
0!
0-
0.
#185000
1!
1-
1.
1r
0p
1N
1I
1D
1=
0%
1>
1E
1J
1O
0^
1T
0L
1K
0G
1F
0@
0g
1?
0;
1Y
0U
1L
1G
1@
0m
0h
1a
0Z
1i
1d
1[
0<
1b
0l
0[
0c
0i
0d
#190000
0!
0-
0.
#195000
1!
1-
1.
0=
0>
1g
0?
1;
0@
1m
1<
0C
#200000
0!
0-
0.
#205000
1!
1-
1.
0D
1=
1>
0E
0F
1@
0g
1?
0;
0G
1F
0@
0m
0<
1C
1G
0C
0H
1H
#210000
0!
0-
0.
#215000
1!
1-
1.
0=
0>
1g
0?
1;
0F
1@
1m
1<
0G
1C
0H
#220000
0!
0-
0.
#225000
1!
1-
1.
0I
1D
1=
1>
1E
0J
0K
1G
1F
0@
0g
1?
0;
0L
1K
0G
1@
0m
0<
0C
1H
1L
1C
0H
0M
1M
#230000
0!
0-
0.
#235000
1!
1-
1.
0=
0>
1g
0?
1;
0@
1m
1<
0C
#240000
0!
0-
0.
#245000
1!
1-
1.
0D
1=
1>
0E
0F
1@
0g
1?
0;
0K
1G
1F
0@
0m
0<
1C
0L
1K
0G
0C
1H
1L
1n
0H
0M
0n
1o
1M
0o
#250000
0!
0-
0.
#255000
1!
1-
1.
0=
0>
1g
0?
1;
0F
1@
1m
1<
0K
1G
1C
0L
1H
0M
#260000
0!
0-
0.
#265000
1!
1-
1.
0N
1I
1D
1=
1>
1E
1J
0O
0T
1L
1K
0G
1F
0@
0g
1?
0;
0Y
1U
1T
0L
1G
1@
0m
0<
0C
0H
1M
0a
1Z
1Y
0U
1C
1H
0M
1V
0b
1l
1a
0Z
0V
1[
1c
1b
0l
0[
1i
0c
0i
1d
0d
#270000
0!
0-
0.
#275000
1!
1-
1.
0=
0>
1g
0?
1;
0@
1m
1<
0C
#280000
0!
0-
0.
#285000
1!
1-
1.
0D
1=
1>
0E
0F
1@
0g
1?
0;
0G
1F
0@
0m
0<
1C
1G
1n
0C
0H
0n
1o
1H
0o
#290000
0!
0-
0.
#295000
1!
1-
1.
0=
0>
1g
0?
1;
0F
1@
1m
1<
0G
1C
0H
#300000
0!
0-
0.
#305000
1!
1-
1.
0I
1D
1=
1>
1E
0J
0K
1G
1F
0@
0g
1?
0;
0T
1L
1K
0G
1@
0m
0<
0C
1H
0Y
1U
1T
0L
1C
0H
1M
0a
1Z
1Y
0U
0M
1V
0b
1l
1a
0Z
0V
1[
1c
1b
0l
0[
1i
0c
0i
1d
0d
#310000
0!
0-
0.
#315000
1!
1-
1.
0=
0>
1g
0?
1;
0@
1m
1<
1n
0C
#320000
0!
0-
0.
#325000
1!
1-
1.
0D
1=
1>
0E
1^
0F
1@
0g
1?
0;
0K
1G
1F
0@
0m
0n
0<
1C
0T
1L
1K
0G
0C
1H
0Y
1U
1T
0L
0H
1M
0a
1Z
1Y
0U
0M
1V
0b
1l
1a
0Z
1n
0V
1[
1c
1b
0l
0[
1i
0c
0i
1d
1o
0d
#330000
0!
0-
0.
#335000
1!
1-
1.
1p
0=
0>
0q
1g
0?
1;
0F
1@
1m
1h
1<
0K
1G
0n
1M
1H
1C
0o
0T
1L
0Y
1U
0a
1Z
0b
1l
1c
#340000
0!
0-
0.
#345000
1!
1-
1.
0r
0p
1N
1I
1D
1=
1%
1>
1E
1J
1O
0^
1T
0L
1K
0G
1F
0@
0g
1?
0;
1Y
0U
1L
1G
1@
0m
0h
1a
0Z
1i
1d
1[
0<
1b
0l
0[
0c
0i
0d
#350000
0!
0-
0.
#355000
1!
1-
1.
0=
0>
1g
0?
1;
0@
1m
1<
0C
#360000
0!
0-
0.
#365000
1!
1-
1.
0D
1=
1>
0E
0F
1@
0g
1?
0;
0G
1F
0@
0m
0<
1C
1G
0C
0H
1H
#370000
0!
0-
0.
#375000
1!
1-
1.
0=
0>
1g
0?
1;
0F
1@
1m
1<
0G
1C
0H
#380000
0!
0-
0.
#385000
1!
1-
1.
0I
1D
1=
1>
1E
0J
0K
1G
1F
0@
0g
1?
0;
0L
1K
0G
1@
0m
0<
0C
1H
1L
1C
0H
0M
1M
#390000
0!
0-
0.
#395000
1!
1-
1.
0=
0>
1g
0?
1;
0@
1m
1<
0C
#400000
0!
0-
0.
#405000
1!
1-
1.
0D
1=
1>
0E
0F
1@
0g
1?
0;
0K
1G
1F
0@
0m
0<
1C
0L
1K
0G
0C
1H
1L
1n
0H
0M
0n
1o
1M
0o
#410000
0!
0-
0.
#415000
1!
1-
1.
0=
0>
1g
0?
1;
0F
1@
1m
1<
0K
1G
1C
0L
1H
0M
#420000
0!
0-
0.
#425000
1!
1-
1.
0N
1I
1D
1=
1>
1E
1J
0O
0T
1L
1K
0G
1F
0@
0g
1?
0;
0Y
1U
1T
0L
1G
1@
0m
0<
0C
0H
1M
0a
1Z
1Y
0U
1C
1H
0M
1V
0b
1l
1a
0Z
0V
1[
1c
1b
0l
0[
1i
0c
0i
1d
0d
#430000
0!
0-
0.
#435000
1!
1-
1.
0=
0>
1g
0?
1;
0@
1m
1<
0C
#440000
b111 "
b11 "
1#
0!
07
05
12
0-
0.
13
#445000
1!
1-
1.
0x
0w
#450000
0$
0#
0!
0/
02
0-
0.
03
0J
1B
1>
1:
0g
1?
0;
0G
0<
1C
1@
1n
0H
1<
0n
0C
0D
0I
#455000
1!
1-
1.
#460000
1$
0!
1/
0-
0.
0m
#465000
1!
1-
1.
1=
0>
1g
0?
1;
0@
1m
0<
1n
1C
#470000
0!
0-
0.
#475000
1!
1-
1.
1D
0=
1>
0E
1^
0F
1@
0g
1?
0;
0K
1G
1F
0@
0m
0n
1<
0C
0T
1L
1K
0G
1C
1H
0Y
1U
1T
0L
0H
1M
0a
1Z
1Y
0U
0M
1V
0b
1l
1a
0Z
1n
0V
1[
1c
1b
0l
0[
1i
0c
0i
1d
1o
0d
#480000
0!
0-
0.
#485000
1!
1-
1.
1p
1=
0>
1q
1g
0?
1;
0F
1@
1m
1h
0<
0K
1G
0n
0C
0o
0T
1L
0Y
1U
0a
1Z
0b
1l
1c
#490000
0!
0-
0.
#495000
1!
1-
1.
1r
0p
0D
0=
0%
1>
1E
0^
1F
0@
0g
1?
0;
1K
0G
1@
0m
0h
1T
0L
1i
1d
1[
1V
1M
1<
1Y
0U
0M
1a
0Z
0V
1b
0l
0[
0c
0i
0d
#500000
0!
0-
0.
#505000
1!
1-
1.
1=
0>
1g
0?
1;
0@
1m
0<
1n
1C
#510000
0!
0-
0.
#515000
1!
1-
1.
1D
0=
1>
0E
1^
0F
1@
0g
1?
0;
0K
1G
1F
0@
0m
0n
1<
0C
0T
1L
1K
0G
1C
1H
0Y
1U
1T
0L
0H
1M
0a
1Z
1Y
0U
0M
1V
0b
1l
1a
0Z
1n
0V
1[
1c
1b
0l
0[
1i
0c
0i
1d
1o
0d
#520000
0!
0-
0.
#525000
1!
1-
1.
1p
1=
0>
0q
1g
0?
1;
0F
1@
1m
1h
0<
0K
1G
0n
0C
0o
0T
1L
0Y
1U
0a
1Z
0b
1l
1c
#530000
0!
0-
0.
#535000
1!
1-
1.
0r
0p
0D
0=
1%
1>
1E
0^
1F
0@
0g
1?
0;
1K
0G
1@
0m
0h
1T
0L
1i
1d
1[
1V
1M
1<
1Y
0U
0M
1a
0Z
0V
1b
0l
0[
0c
0i
0d
#540000
0!
0-
0.
#545000
1!
1-
1.
1=
0>
1g
0?
1;
0@
1m
0<
1n
1C
#550000
0!
0-
0.
#555000
1!
1-
1.
1D
0=
1>
0E
1^
0F
1@
0g
1?
0;
0K
1G
1F
0@
0m
0n
1<
0C
0T
1L
1K
0G
1C
1H
0Y
1U
1T
0L
0H
1M
0a
1Z
1Y
0U
0M
1V
0b
1l
1a
0Z
1n
0V
1[
1c
1b
0l
0[
1i
0c
0i
1d
1o
0d
#560000
0!
0-
0.
#565000
1!
1-
1.
1p
1=
0>
1q
1g
0?
1;
0F
1@
1m
1h
0<
0K
1G
0n
0C
0o
0T
1L
0Y
1U
0a
1Z
0b
1l
1c
#570000
0!
0-
0.
#575000
1!
1-
1.
1r
0p
0D
0=
0%
1>
1E
0^
1F
0@
0g
1?
0;
1K
0G
1@
0m
0h
1T
0L
1i
1d
1[
1V
1M
1<
1Y
0U
0M
1a
0Z
0V
1b
0l
0[
0c
0i
0d
#580000
0!
0-
0.
#585000
1!
1-
1.
1=
0>
1g
0?
1;
0@
1m
0<
1n
1C
#590000
0!
0-
0.
#595000
1!
1-
1.
1D
0=
1>
0E
1^
0F
1@
0g
1?
0;
0K
1G
1F
0@
0m
0n
1<
0C
0T
1L
1K
0G
1C
1H
0Y
1U
1T
0L
0H
1M
0a
1Z
1Y
0U
0M
1V
0b
1l
1a
0Z
1n
0V
1[
1c
1b
0l
0[
1i
0c
0i
1d
1o
0d
#600000
0!
0-
0.
#605000
1!
1-
1.
1p
1=
0>
0q
1g
0?
1;
0F
1@
1m
1h
0<
0K
1G
0n
0C
0o
0T
1L
0Y
1U
0a
1Z
0b
1l
1c
#610000
0!
0-
0.
#615000
1!
1-
1.
0r
0p
0D
0=
1%
1>
1E
0^
1F
0@
0g
1?
0;
1K
0G
1@
0m
0h
1T
0L
1i
1d
1[
1V
1M
1<
1Y
0U
0M
1a
0Z
0V
1b
0l
0[
0c
0i
0d
#620000
0!
0-
0.
#625000
1!
1-
1.
1=
0>
1g
0?
1;
0@
1m
0<
1n
1C
#630000
0!
0-
0.
#635000
1!
1-
1.
1D
0=
1>
0E
1^
0F
1@
0g
1?
0;
0K
1G
1F
0@
0m
0n
1<
0C
0T
1L
1K
0G
1C
1H
0Y
1U
1T
0L
0H
1M
0a
1Z
1Y
0U
0M
1V
0b
1l
1a
0Z
1n
0V
1[
1c
1b
0l
0[
1i
0c
0i
1d
1o
0d
#640000
0!
0-
0.
#645000
1!
1-
1.
1p
1=
0>
1q
1g
0?
1;
0F
1@
1m
1h
0<
0K
1G
0n
0C
0o
0T
1L
0Y
1U
0a
1Z
0b
1l
1c
#650000
0!
0-
0.
#655000
1!
1-
1.
1r
0p
0D
0=
0%
1>
1E
0^
1F
0@
0g
1?
0;
1K
0G
1@
0m
0h
1T
0L
1i
1d
1[
1V
1M
1<
1Y
0U
0M
1a
0Z
0V
1b
0l
0[
0c
0i
0d
#660000
0!
0-
0.
#665000
1!
1-
1.
1=
0>
1g
0?
1;
0@
1m
0<
1n
1C
#670000
0!
0-
0.
#675000
1!
1-
1.
1D
0=
1>
0E
1^
0F
1@
0g
1?
0;
0K
1G
1F
0@
0m
0n
1<
0C
0T
1L
1K
0G
1C
1H
0Y
1U
1T
0L
0H
1M
0a
1Z
1Y
0U
0M
1V
0b
1l
1a
0Z
1n
0V
1[
1c
1b
0l
0[
1i
0c
0i
1d
1o
0d
#680000
0!
0-
0.
#685000
1!
1-
1.
1p
1=
0>
0q
1g
0?
1;
0F
1@
1m
1h
0<
0K
1G
0n
0C
0o
0T
1L
0Y
1U
0a
1Z
0b
1l
1c
#690000
0!
0-
0.
#695000
1!
1-
1.
0r
0p
0D
0=
1%
1>
1E
0^
1F
0@
0g
1?
0;
1K
0G
1@
0m
0h
1T
0L
1i
1d
1[
1V
1M
1<
1Y
0U
0M
1a
0Z
0V
1b
0l
0[
0c
0i
0d
#700000
0!
0-
0.
#705000
1!
1-
1.
1=
0>
1g
0?
1;
0@
1m
0<
1n
1C
#710000
0!
0-
0.
#715000
1!
1-
1.
1D
0=
1>
0E
1^
0F
1@
0g
1?
0;
0K
1G
1F
0@
0m
0n
1<
0C
0T
1L
1K
0G
1C
1H
0Y
1U
1T
0L
0H
1M
0a
1Z
1Y
0U
0M
1V
0b
1l
1a
0Z
1n
0V
1[
1c
1b
0l
0[
1i
0c
0i
1d
1o
0d
#720000
0!
0-
0.
#725000
1!
1-
1.
1p
1=
0>
1q
1g
0?
1;
0F
1@
1m
1h
0<
0K
1G
0n
0C
0o
0T
1L
0Y
1U
0a
1Z
0b
1l
1c
#730000
b1011 "
b1111 "
0!
17
15
0-
0.
#735000
1!
1-
1.
1r
0p
0D
0=
0%
1>
1E
0^
1F
0@
0g
1?
0;
1K
0G
1@
0m
0h
1T
0L
1i
1d
1[
1V
1M
1<
1Y
0U
0M
1a
0Z
0V
1b
0l
0[
0c
0i
0d
#740000
1#
0!
12
0-
0.
1m
13
#745000
1!
1-
1.
1x
1w
#750000
0$
0#
0!
0/
02
0-
0.
03
1O
1J
18
16
1G
1L
1M
1H
0M
0H
0r
1%
0q
#755000
1!
1-
1.
#760000
1$
0!
1/
0-
0.
0m
#765000
1!
1-
1.
1=
0>
1g
0?
1;
0@
1m
0<
1C
#770000
0!
0-
0.
#775000
1!
1-
1.
1D
0=
1>
0E
0F
1@
0g
1?
0;
0G
1F
0@
0m
1<
0C
1G
1C
1H
0H
#780000
0!
0-
0.
#785000
1!
1-
1.
1=
0>
1g
0?
1;
0F
1@
1m
0<
0G
0C
1H
#790000
0!
0-
0.
#795000
1!
1-
1.
1I
0D
0=
1>
1E
0J
0K
1G
1F
0@
0g
1?
0;
0L
1K
0G
1@
0m
1<
1C
0H
1L
0C
1H
1M
0M
#800000
0!
0-
0.
#805000
1!
1-
1.
1=
0>
1g
0?
1;
0@
1m
0<
1C
#810000
0!
0-
0.
#815000
1!
1-
1.
1D
0=
1>
0E
0F
1@
0g
1?
0;
0K
1G
1F
0@
0m
1<
0C
0L
1K
0G
1C
0H
1L
1n
1H
1M
0n
1o
0M
0o
#820000
0!
0-
0.
#825000
1!
1-
1.
1=
0>
1g
0?
1;
0F
1@
1m
0<
0K
1G
0C
0L
0H
1M
#830000
0!
0-
0.
#835000
1!
1-
1.
1N
0I
0D
0=
1>
1E
1J
0O
0T
1L
1K
0G
1F
0@
0g
1?
0;
0Y
1U
1T
0L
1G
1@
0m
1<
1C
1H
0M
0a
1Z
1Y
0U
0C
0H
1M
1V
0b
1l
1a
0Z
0V
1[
1c
1b
0l
0[
1i
0c
0i
1d
0d
#840000
0!
0-
0.
#845000
1!
1-
1.
1=
0>
1g
0?
1;
0@
1m
0<
1C
#850000
0!
0-
0.
#855000
1!
1-
1.
1D
0=
1>
0E
0F
1@
0g
1?
0;
0G
1F
0@
0m
1<
0C
1G
1n
1C
1H
0n
1o
0H
0o
#860000
0!
0-
0.
#865000
1!
1-
1.
1=
0>
1g
0?
1;
0F
1@
1m
0<
0G
0C
1H
#870000
0!
0-
0.
#875000
1!
1-
1.
1I
0D
0=
1>
1E
0J
0K
1G
1F
0@
0g
1?
0;
0T
1L
1K
0G
1@
0m
1<
1C
0H
0Y
1U
1T
0L
0C
1H
0M
0a
1Z
1Y
0U
1M
1V
0b
1l
1a
0Z
0V
1[
1c
1b
0l
0[
1i
0c
0i
1d
0d
#880000
0!
0-
0.
#885000
1!
1-
1.
1=
0>
1g
0?
1;
0@
1m
0<
1n
1C
#890000
0!
0-
0.
#895000
1!
1-
1.
1D
0=
1>
0E
1^
0F
1@
0g
1?
0;
0K
1G
1F
0@
0m
0n
1<
0C
0T
1L
1K
0G
1C
0H
0Y
1U
1T
0L
1H
0M
0a
1Z
1Y
0U
1M
1V
0b
1l
1a
0Z
1n
0V
1[
1c
1b
0l
0[
1i
0c
0i
1d
1o
0d
#900000
0!
0-
0.
#905000
1!
1-
1.
1p
1=
0>
1q
1g
0?
1;
0F
1@
1m
1h
0<
0K
1G
0n
0M
0H
0C
0o
0T
1L
0Y
1U
0a
1Z
0b
1l
1c
#910000
0!
0-
0.
#915000
1!
1-
1.
1r
0p
0N
0I
0D
0=
0%
1>
1E
1J
1O
0^
1T
0L
1K
0G
1F
0@
0g
1?
0;
1Y
0U
1L
1G
1@
0m
0h
1a
0Z
1i
1d
1[
1<
1b
0l
0[
0c
0i
0d
#920000
0!
0-
0.
#925000
1!
1-
1.
1=
0>
1g
0?
1;
0@
1m
0<
1C
#930000
0!
0-
0.
#935000
1!
1-
1.
1D
0=
1>
0E
0F
1@
0g
1?
0;
0G
1F
0@
0m
1<
0C
1G
1C
1H
0H
#940000
0!
0-
0.
#945000
1!
1-
1.
1=
0>
1g
0?
1;
0F
1@
1m
0<
0G
0C
1H
#950000
0!
0-
0.
#955000
1!
1-
1.
1I
0D
0=
1>
1E
0J
0K
1G
1F
0@
0g
1?
0;
0L
1K
0G
1@
0m
1<
1C
0H
1L
0C
1H
1M
0M
#960000
0!
0-
0.
#965000
1!
1-
1.
1=
0>
1g
0?
1;
0@
1m
0<
1C
#970000
0!
0-
0.
#975000
1!
1-
1.
1D
0=
1>
0E
0F
1@
0g
1?
0;
0K
1G
1F
0@
0m
1<
0C
0L
1K
0G
1C
0H
1L
1n
1H
1M
0n
1o
0M
0o
#980000
0!
0-
0.
#985000
1!
1-
1.
1=
0>
1g
0?
1;
0F
1@
1m
0<
0K
1G
0C
0L
0H
1M
#990000
0!
0-
0.
#995000
1!
1-
1.
1N
0I
0D
0=
1>
1E
1J
0O
0T
1L
1K
0G
1F
0@
0g
1?
0;
0Y
1U
1T
0L
1G
1@
0m
1<
1C
1H
0M
0a
1Z
1Y
0U
0C
0H
1M
1V
0b
1l
1a
0Z
0V
1[
1c
1b
0l
0[
1i
0c
0i
1d
0d
